module linkchecker

go 1.14

require (
	github.com/davecgh/go-spew v1.1.1 // indirect
	github.com/jmoiron/sqlx v1.3.1
	github.com/lib/pq v1.10.0
	github.com/stretchr/testify v1.7.0
	golang.org/x/crypto v0.0.0-20201216223049-8b5274cf687f // indirect
	golang.org/x/text v0.3.3 // indirect
	google.golang.org/appengine v1.6.6 // indirect
	gopkg.in/yaml.v3 v3.0.0-20210107192922-496545a6307b // indirect
)
